%YAML 1.1
%TAG !u! tag:unity3d.com,2011:
--- !u!74 &7400000
AnimationClip:
  m_ObjectHideFlags: 0
  m_CorrespondingSourceObject: {fileID: 0}
  m_PrefabInstance: {fileID: 0}
  m_PrefabAsset: {fileID: 0}
  m_Name: Batterfly Move
  serializedVersion: 6
  m_Legacy: 0
  m_Compressed: 0
  m_UseHighQualityCurve: 1
  m_RotationCurves: []
  m_CompressedRotationCurves: []
  m_EulerCurves: []
  m_PositionCurves: []
  m_ScaleCurves: []
  m_FloatCurves:
  - curve:
      serializedVersion: 2
      m_Curve:
      - serializedVersion: 3
        time: 0
        value: 1
        inSlope: Infinity
        outSlope: Infinity
        tangentMode: 103
        weightedMode: 0
        inWeight: 0
        outWeight: 0
      - serializedVersion: 3
        time: 1.6666666
        value: 0
        inSlope: Infinity
        outSlope: Infinity
        tangentMode: 103
        weightedMode: 0
        inWeight: 0
        outWeight: 0
      m_PreInfinity: 2
      m_PostInfinity: 2
      m_RotationOrder: 4
    attribute: m_Enabled
    path: 
    classID: 61
    script: {fileID: 0}
  m_PPtrCurves:
  - curve:
    - time: 0
      value: {fileID: 5131983738847958230, guid: fb342121425f0aa479f2d7cbe052a6af,
        type: 3}
    - time: 0.041666668
      value: {fileID: -4868004378945386705, guid: fb342121425f0aa479f2d7cbe052a6af,
        type: 3}
    - time: 0.083333336
      value: {fileID: 6434546056692784540, guid: fb342121425f0aa479f2d7cbe052a6af,
        type: 3}
    - time: 0.125
      value: {fileID: 994876415140948282, guid: fb342121425f0aa479f2d7cbe052a6af,
        type: 3}
    - time: 0.16666667
      value: {fileID: 2078406265756261760, guid: fb342121425f0aa479f2d7cbe052a6af,
        type: 3}
    - time: 0.20833333
      value: {fileID: -857738383849284783, guid: fb342121425f0aa479f2d7cbe052a6af,
        type: 3}
    - time: 0.25
      value: {fileID: -531673931388287028, guid: fb342121425f0aa479f2d7cbe052a6af,
        type: 3}
    - time: 0.29166666
      value: {fileID: -5110958448447313078, guid: fb342121425f0aa479f2d7cbe052a6af,
        type: 3}
    - time: 0.33333334
      value: {fileID: -5788069148411532751, guid: fb342121425f0aa479f2d7cbe052a6af,
        type: 3}
    - time: 0.375
      value: {fileID: 3575272029813533272, guid: fb342121425f0aa479f2d7cbe052a6af,
        type: 3}
    - time: 0.41666666
      value: {fileID: -8911606378688637882, guid: fb342121425f0aa479f2d7cbe052a6af,
        type: 3}
    - time: 0.45833334
      value: {fileID: 7060182585778189993, guid: fb342121425f0aa479f2d7cbe052a6af,
        type: 3}
    - time: 0.5
      value: {fileID: 6365863564607029403, guid: fb342121425f0aa479f2d7cbe052a6af,
        type: 3}
    - time: 0.5416667
      value: {fileID: 528348838778104308, guid: fb342121425f0aa479f2d7cbe052a6af,
        type: 3}
    - time: 0.5833333
      value: {fileID: -3530256670434679916, guid: fb342121425f0aa479f2d7cbe052a6af,
        type: 3}
    - time: 0.625
      value: {fileID: 7809684744127150682, guid: fb342121425f0aa479f2d7cbe052a6af,
        type: 3}
    - time: 0.6666667
      value: {fileID: -3958085467988892112, guid: fb342121425f0aa479f2d7cbe052a6af,
        type: 3}
    - time: 0.7083333
      value: {fileID: 1261227779597674838, guid: fb342121425f0aa479f2d7cbe052a6af,
        type: 3}
    - time: 0.75
      value: {fileID: 4517008728898958888, guid: fb342121425f0aa479f2d7cbe052a6af,
        type: 3}
    - time: 0.7916667
      value: {fileID: -452440963211009584, guid: fb342121425f0aa479f2d7cbe052a6af,
        type: 3}
    - time: 0.8333333
      value: {fileID: 6801444807556946291, guid: fb342121425f0aa479f2d7cbe052a6af,
        type: 3}
    - time: 0.875
      value: {fileID: -4863187845584616776, guid: fb342121425f0aa479f2d7cbe052a6af,
        type: 3}
    - time: 0.9166667
      value: {fileID: 5107011394856739087, guid: fb342121425f0aa479f2d7cbe052a6af,
        type: 3}
    - time: 0.9583333
      value: {fileID: 6099776063755435124, guid: fb342121425f0aa479f2d7cbe052a6af,
        type: 3}
    - time: 1
      value: {fileID: 1342843640630643139, guid: fb342121425f0aa479f2d7cbe052a6af,
        type: 3}
    - time: 1.0416666
      value: {fileID: -5060741042349175200, guid: fb342121425f0aa479f2d7cbe052a6af,
        type: 3}
    - time: 1.0833334
      value: {fileID: 4488044948544758298, guid: fb342121425f0aa479f2d7cbe052a6af,
        type: 3}
    - time: 1.125
      value: {fileID: 3521981080854194615, guid: fb342121425f0aa479f2d7cbe052a6af,
        type: 3}
    - time: 1.1666666
      value: {fileID: -4788033707017769900, guid: fb342121425f0aa479f2d7cbe052a6af,
        type: 3}
    - time: 1.2083334
      value: {fileID: -384837002281262681, guid: fb342121425f0aa479f2d7cbe052a6af,
        type: 3}
    - time: 1.25
      value: {fileID: 2674230032609503578, guid: fb342121425f0aa479f2d7cbe052a6af,
        type: 3}
    - time: 1.2916666
      value: {fileID: 8910044438662036166, guid: fb342121425f0aa479f2d7cbe052a6af,
        type: 3}
    - time: 1.3333334
      value: {fileID: 7969574382997305573, guid: fb342121425f0aa479f2d7cbe052a6af,
        type: 3}
    - time: 1.375
      value: {fileID: 5197771007001403157, guid: fb342121425f0aa479f2d7cbe052a6af,
        type: 3}
    - time: 1.4166666
      value: {fileID: -447503020255344932, guid: fb342121425f0aa479f2d7cbe052a6af,
        type: 3}
    - time: 1.4583334
      value: {fileID: -7608799978064824381, guid: fb342121425f0aa479f2d7cbe052a6af,
        type: 3}
    - time: 1.5
      value: {fileID: -5259707678240531845, guid: fb342121425f0aa479f2d7cbe052a6af,
        type: 3}
    - time: 1.5416666
      value: {fileID: -34375263954221396, guid: fb342121425f0aa479f2d7cbe052a6af,
        type: 3}
    - time: 1.5833334
      value: {fileID: -6923055995546619711, guid: fb342121425f0aa479f2d7cbe052a6af,
        type: 3}
    - time: 1.625
      value: {fileID: 2694414046957209227, guid: fb342121425f0aa479f2d7cbe052a6af,
        type: 3}
    attribute: m_Sprite
    path: Body
    classID: 212
    script: {fileID: 0}
  m_SampleRate: 24
  m_WrapMode: 0
  m_Bounds:
    m_Center: {x: 0, y: 0, z: 0}
    m_Extent: {x: 0, y: 0, z: 0}
  m_ClipBindingConstant:
    genericBindings:
    - serializedVersion: 2
      path: 0
      attribute: 3305885265
      script: {fileID: 0}
      typeID: 61
      customType: 0
      isPPtrCurve: 0
    - serializedVersion: 2
      path: 2073732236
      attribute: 0
      script: {fileID: 0}
      typeID: 212
      customType: 23
      isPPtrCurve: 1
    pptrCurveMapping:
    - {fileID: 5131983738847958230, guid: fb342121425f0aa479f2d7cbe052a6af, type: 3}
    - {fileID: -4868004378945386705, guid: fb342121425f0aa479f2d7cbe052a6af, type: 3}
    - {fileID: 6434546056692784540, guid: fb342121425f0aa479f2d7cbe052a6af, type: 3}
    - {fileID: 994876415140948282, guid: fb342121425f0aa479f2d7cbe052a6af, type: 3}
    - {fileID: 2078406265756261760, guid: fb342121425f0aa479f2d7cbe052a6af, type: 3}
    - {fileID: -857738383849284783, guid: fb342121425f0aa479f2d7cbe052a6af, type: 3}
    - {fileID: -531673931388287028, guid: fb342121425f0aa479f2d7cbe052a6af, type: 3}
    - {fileID: -5110958448447313078, guid: fb342121425f0aa479f2d7cbe052a6af, type: 3}
    - {fileID: -5788069148411532751, guid: fb342121425f0aa479f2d7cbe052a6af, type: 3}
    - {fileID: 3575272029813533272, guid: fb342121425f0aa479f2d7cbe052a6af, type: 3}
    - {fileID: -8911606378688637882, guid: fb342121425f0aa479f2d7cbe052a6af, type: 3}
    - {fileID: 7060182585778189993, guid: fb342121425f0aa479f2d7cbe052a6af, type: 3}
    - {fileID: 6365863564607029403, guid: fb342121425f0aa479f2d7cbe052a6af, type: 3}
    - {fileID: 528348838778104308, guid: fb342121425f0aa479f2d7cbe052a6af, type: 3}
    - {fileID: -3530256670434679916, guid: fb342121425f0aa479f2d7cbe052a6af, type: 3}
    - {fileID: 7809684744127150682, guid: fb342121425f0aa479f2d7cbe052a6af, type: 3}
    - {fileID: -3958085467988892112, guid: fb342121425f0aa479f2d7cbe052a6af, type: 3}
    - {fileID: 1261227779597674838, guid: fb342121425f0aa479f2d7cbe052a6af, type: 3}
    - {fileID: 4517008728898958888, guid: fb342121425f0aa479f2d7cbe052a6af, type: 3}
    - {fileID: -452440963211009584, guid: fb342121425f0aa479f2d7cbe052a6af, type: 3}
    - {fileID: 6801444807556946291, guid: fb342121425f0aa479f2d7cbe052a6af, type: 3}
    - {fileID: -4863187845584616776, guid: fb342121425f0aa479f2d7cbe052a6af, type: 3}
    - {fileID: 5107011394856739087, guid: fb342121425f0aa479f2d7cbe052a6af, type: 3}
    - {fileID: 6099776063755435124, guid: fb342121425f0aa479f2d7cbe052a6af, type: 3}
    - {fileID: 1342843640630643139, guid: fb342121425f0aa479f2d7cbe052a6af, type: 3}
    - {fileID: -5060741042349175200, guid: fb342121425f0aa479f2d7cbe052a6af, type: 3}
    - {fileID: 4488044948544758298, guid: fb342121425f0aa479f2d7cbe052a6af, type: 3}
    - {fileID: 3521981080854194615, guid: fb342121425f0aa479f2d7cbe052a6af, type: 3}
    - {fileID: -4788033707017769900, guid: fb342121425f0aa479f2d7cbe052a6af, type: 3}
    - {fileID: -384837002281262681, guid: fb342121425f0aa479f2d7cbe052a6af, type: 3}
    - {fileID: 2674230032609503578, guid: fb342121425f0aa479f2d7cbe052a6af, type: 3}
    - {fileID: 8910044438662036166, guid: fb342121425f0aa479f2d7cbe052a6af, type: 3}
    - {fileID: 7969574382997305573, guid: fb342121425f0aa479f2d7cbe052a6af, type: 3}
    - {fileID: 5197771007001403157, guid: fb342121425f0aa479f2d7cbe052a6af, type: 3}
    - {fileID: -447503020255344932, guid: fb342121425f0aa479f2d7cbe052a6af, type: 3}
    - {fileID: -7608799978064824381, guid: fb342121425f0aa479f2d7cbe052a6af, type: 3}
    - {fileID: -5259707678240531845, guid: fb342121425f0aa479f2d7cbe052a6af, type: 3}
    - {fileID: -34375263954221396, guid: fb342121425f0aa479f2d7cbe052a6af, type: 3}
    - {fileID: -6923055995546619711, guid: fb342121425f0aa479f2d7cbe052a6af, type: 3}
    - {fileID: 2694414046957209227, guid: fb342121425f0aa479f2d7cbe052a6af, type: 3}
  m_AnimationClipSettings:
    serializedVersion: 2
    m_AdditiveReferencePoseClip: {fileID: 0}
    m_AdditiveReferencePoseTime: 0
    m_StartTime: 0
    m_StopTime: 1.6666666
    m_OrientationOffsetY: 0
    m_Level: 0
    m_CycleOffset: 0
    m_HasAdditiveReferencePose: 0
    m_LoopTime: 1
    m_LoopBlend: 0
    m_LoopBlendOrientation: 0
    m_LoopBlendPositionY: 0
    m_LoopBlendPositionXZ: 0
    m_KeepOriginalOrientation: 0
    m_KeepOriginalPositionY: 1
    m_KeepOriginalPositionXZ: 0
    m_HeightFromFeet: 0
    m_Mirror: 0
  m_EditorCurves:
  - curve:
      serializedVersion: 2
      m_Curve:
      - serializedVersion: 3
        time: 0
        value: 1
        inSlope: Infinity
        outSlope: Infinity
        tangentMode: 103
        weightedMode: 0
        inWeight: 0
        outWeight: 0
      - serializedVersion: 3
        time: 1.6666666
        value: 0
        inSlope: Infinity
        outSlope: Infinity
        tangentMode: 103
        weightedMode: 0
        inWeight: 0
        outWeight: 0
      m_PreInfinity: 2
      m_PostInfinity: 2
      m_RotationOrder: 4
    attribute: m_Enabled
    path: 
    classID: 61
    script: {fileID: 0}
  m_EulerEditorCurves: []
  m_HasGenericRootTransform: 0
  m_HasMotionFloatCurves: 0
  m_Events:
  - time: 0
    functionName: StartMoving
    data: 
    objectReferenceParameter: {fileID: 0}
    floatParameter: 0
    intParameter: 0
    messageOptions: 0
